com\mycompany\DatabaseProject\dao\Dao.class
com\mycompany\DatabaseProject\ConnectionDatabase.class
com\mycompany\DatabaseProject\SelectDatabase.class
com\mycompany\DatabaseProject\TestUserDao.class
com\mycompany\DatabaseProject\service\UserService.class
com\mycompany\DatabaseProject\TestUserService.class
com\mycompany\DatabaseProject\InsertDatabase.class
com\mycompany\DatabaseProject\UpdateDatabase.class
com\mycompany\DatabaseProject\model\User.class
com\mycompany\DatabaseProject\helper\DatabaseHelper.class
com\mycompany\DatabaseProject\DeleteDatabase.class
com\mycompany\DatabaseProject\dao\UserDao.class
